{
    "donation": [
        {
            "id": "1",
            "title": "Aid for Necessary Items to Help Our Country",
            "subtitle": "Health Care for Everyone",
            "gambar": "https://i0.wp.com/www.directrelief.org/wp-content/uploads/nepal-1.jpg?resize=1280%2C720px&ssl=1",
            "kategori": "Medical",
            "progres": "0.5"
        },
        {
            "id": "2",
            "title": "Educations System for Our Next Generations",
            "subtitle": "Education for Everyone",
            "gambar": "https://www.groundup.org.za/media/_versions/images/photographers/Mangqulo%20Nyakombi/MajaliTreeClass-Manqulo%20Nyakombi-20160202_large.jpg",
            "kategori": "Education",
            "progres": "0.8"
        },
        {
            "id": "3",
            "title": "Together Make Our Earth Better",
            "subtitle": "Public Health",
            "gambar": "https://www.mindomo.com/doc.htm?d=14c34612edfe406aa02d129d0a516ea0&m=f52a23cd6bfa49b99de0f572d9cfc4c2",
            "kategori": "Environment",
            "progres": "0.4"
        },
        {
            "id": "4",
            "title": "Educations System for Our Next Generations",
            "subtitle": "Education for Everyone",
            "gambar": "https://www.groundup.org.za/media/_versions/images/photographers/Mangqulo%20Nyakombi/MajaliTreeClass-Manqulo%20Nyakombi-20160202_large.jpg",
            "kategori": "Education",
            "progres": "0.8"
        },
        {
            "id": "5",
            "title": "Aid for Necessary Items to Help Our Country",
            "subtitle": "Health Care for Everyone",
            "gambar": "https://i0.wp.com/www.directrelief.org/wp-content/uploads/nepal-1.jpg?resize=1280%2C720px&ssl=1",
            "kategori": "Medical",
            "progres": "0.5"
        },
        {
            "id": "6",
            "title": "Together Make Our Earth Better",
            "subtitle": "Public Health",
            "gambar": "https://www.mindomo.com/doc.htm?d=14c34612edfe406aa02d129d0a516ea0&m=f52a23cd6bfa49b99de0f572d9cfc4c2",
            "kategori": "Environment",
            "progres": "0.4"
        },
        {
            "id": "7",
            "title": "Aid for Necessary Items to Help Our Country",
            "subtitle": "Health Care for Everyone",
            "gambar": "https://i0.wp.com/www.directrelief.org/wp-content/uploads/nepal-1.jpg?resize=1280%2C720px&ssl=1",
            "kategori": "Medical",
            "progres": "0.5"
        },
        {
            "id": "8",
            "title": "Educations System for Our Next Generations",
            "subtitle": "Education for Everyone",
            "gambar": "https://www.groundup.org.za/media/_versions/images/photographers/Mangqulo%20Nyakombi/MajaliTreeClass-Manqulo%20Nyakombi-20160202_large.jpg",
            "kategori": "Education",
            "progres": "0.8"
        },
        {
            "id": "9",
            "title": "Together Make Our Earth Better",
            "subtitle": "Public Health",
            "gambar": "https://www.mindomo.com/doc.htm?d=14c34612edfe406aa02d129d0a516ea0&m=f52a23cd6bfa49b99de0f572d9cfc4c2",
            "kategori": "Environment",
            "progres": "0.4"
        },
        {
            "id": "10",
            "title": "Educations System for Our Next Generations",
            "subtitle": "Education for Everyone",
            "gambar": "https://www.groundup.org.za/media/_versions/images/photographers/Mangqulo%20Nyakombi/MajaliTreeClass-Manqulo%20Nyakombi-20160202_large.jpg",
            "kategori": "Education",
            "progres": "0.8"
        }
    ]
}