<svg width="49" height="42" viewBox="0 0 49 42" fill="none" xmlns="http://www.w3.org/2000/svg">
<path d="M6.8041 4.98365C6.8041 4.76059 6.70939 4.73626 6.5982 4.92687L3.12663 10.8075C3.065 10.9032 2.97329 10.9764 2.86547 11.016C2.75766 11.0555 2.63967 11.0592 2.5295 11.0266L0.392204 10.3046C0.347765 10.2855 0.299042 10.2781 0.250807 10.2831C0.202572 10.288 0.156478 10.3053 0.11704 10.3331C0.0776019 10.3609 0.0461717 10.3983 0.0258274 10.4417C0.00548317 10.485 -0.00307759 10.5328 0.000983522 10.5804V20.8452C0.015399 21.1005 0.127185 21.341 0.31396 21.5185L24.199 41.89C24.2873 41.9611 24.3979 42 24.512 42C24.6261 42 24.7367 41.9611 24.825 41.89L48.8171 21.9038C48.8573 21.8727 48.8899 21.8329 48.9122 21.7876C48.9346 21.7423 48.9462 21.6926 48.9462 21.6422C48.9462 21.5918 48.9346 21.5421 48.9122 21.4967C48.8899 21.4514 48.8573 21.4117 48.8171 21.3806L37.3152 11.8052C37.225 11.7365 37.1142 11.6992 37.0001 11.6992C36.8861 11.6992 36.7753 11.7365 36.6851 11.8052L24.8744 21.3684C24.7814 21.4363 24.6688 21.4729 24.5532 21.4729C24.4375 21.4729 24.3249 21.4363 24.2319 21.3684L15.971 14.9402C15.8761 14.857 15.7989 14.7561 15.7438 14.6433C15.6887 14.5306 15.6567 14.4082 15.6498 14.2832V11.9512C15.6498 11.7282 15.7939 11.6592 15.9669 11.8012L24.2361 18.3835C24.3281 18.4516 24.4401 18.4884 24.5552 18.4884C24.6703 18.4884 24.7823 18.4516 24.8744 18.3835L36.5575 8.92573C36.6483 8.85667 36.7598 8.81921 36.8745 8.81921C36.9893 8.81921 37.1008 8.85667 37.1916 8.92573L48.813 18.3956C48.99 18.5376 49.0518 18.4889 48.953 18.2861L46.3091 12.811C46.2623 12.7071 46.2515 12.5908 46.2782 12.4802C46.305 12.3695 46.368 12.2706 46.4574 12.1986L48.8047 10.4385C48.8456 10.4091 48.8788 10.3707 48.9017 10.3263C48.9246 10.2819 48.9365 10.2328 48.9365 10.183C48.9365 10.1332 48.9246 10.0841 48.9017 10.0397C48.8788 9.99528 48.8456 9.95684 48.8047 9.92747L37.3152 0.112832C37.2269 0.0416666 37.1163 0.00278407 37.0022 0.00278407C36.8881 0.00278407 36.7775 0.0416666 36.6892 0.112832L24.8703 10.037C24.782 10.1081 24.6714 10.147 24.5573 10.147C24.4432 10.147 24.3326 10.1081 24.2443 10.037L12.6724 0.112832C12.5889 0.0401276 12.4812 0 12.3697 0C12.2582 0 12.1506 0.0401276 12.067 0.112832L9.3738 2.67599C9.19782 2.86566 9.09317 3.109 9.0773 3.36545V16.7491C9.09203 17.0022 9.20217 17.2408 9.38616 17.4182L24.2443 30.1935C24.3339 30.2636 24.4449 30.3017 24.5593 30.3017C24.6737 30.3017 24.7848 30.2636 24.8744 30.1935L36.5575 20.6384C36.6479 20.5727 36.7594 20.5414 36.8714 20.5503C36.9835 20.5593 37.0884 20.6078 37.1669 20.6871L38.353 21.8551C38.3909 21.8911 38.4206 21.9346 38.4402 21.9827C38.4597 22.0309 38.4686 22.0826 38.4663 22.1344C38.4639 22.1862 38.4504 22.2369 38.4266 22.2831C38.4028 22.3294 38.3693 22.3701 38.3282 22.4026L24.8703 33.5556C24.783 33.6272 24.6729 33.6664 24.5593 33.6664C24.4457 33.6664 24.3357 33.6272 24.2484 33.5556L7.14179 18.5011C6.9633 18.3269 6.85502 18.0949 6.83705 17.8481L6.8041 4.98365Z" fill="#1D94A8"/>
</svg>
